{
	"type": "Collection",
	"properties": {
		"title": {
			"name": "title",
			"type": "string",
			"typeLabel": "string",
			"required": true,
			"id": "title",
			"order": 0
		},
		"completed": {
			"name": "completed",
			"type": "boolean",
			"typeLabel": "boolean",
			"required": false,
			"id": "completed",
			"order": 1
		},
		"postedTime": {
			"name": "postedTime",
			"type": "number",
			"typeLabel": "number",
			"required": false,
			"id": "postedTime",
			"order": 2
		},
		"creator": {
			"name": "creator",
			"type": "string",
			"typeLabel": "string",
			"required": false,
			"id": "creator",
			"order": 3
		},
		"creatorName": {
			"name": "creatorName",
			"type": "string",
			"typeLabel": "string",
			"required": false,
			"id": "creatorName",
			"order": 4
		}
	}
}