{
	"type": "Collection",
	"properties": {
		"author": {
			"name": "author",
			"type": "string",
			"typeLabel": "string",
			"required": false,
			"id": "author",
			"order": 0
		},
		"title": {
			"name": "title",
			"type": "string",
			"typeLabel": "string",
			"required": false,
			"id": "title",
			"order": 1
		},
		"content": {
			"name": "content",
			"type": "string",
			"typeLabel": "string",
			"required": true,
			"id": "content",
			"order": 2
		},
		"alias": {
			"name": "alias",
			"type": "string",
			"typeLabel": "string",
			"required": true,
			"id": "alias",
			"order": 3
		},
		"tags": {
			"name": "tags",
			"type": "array",
			"typeLabel": "array",
			"required": false,
			"id": "tags",
			"order": 4
		},
		"navTitle": {
			"name": "navTitle",
			"type": "string",
			"typeLabel": "string",
			"required": false,
			"id": "navTitle",
			"order": 5
		},
		"enabled": {
			"name": "enabled",
			"type": "boolean",
			"typeLabel": "boolean",
			"required": true,
			"id": "enabled",
			"order": 6
		},
		"glyphIcon": {
			"name": "glyphIcon",
			"type": "string",
			"typeLabel": "string",
			"required": false,
			"id": "glyphIcon",
			"order": 7
		},
		"sortOrder": {
			"name": "sortOrder",
			"type": "number",
			"typeLabel": "number",
			"required": false,
			"id": "sortOrder",
			"order": 8
		},
		"location": {
			"name": "location",
			"type": "string",
			"typeLabel": "string",
			"required": false,
			"id": "location",
			"order": 9
		}
	}
}